<?xml version="1.0" encoding="utf-8"?>
<!-- Generator: Adobe Illustrator 16.0.4, SVG Export Plug-In . SVG Version: 6.00 Build 0)  -->
<!DOCTYPE svg PUBLIC "-//W3C//DTD SVG 1.1//EN" "http://www.w3.org/Graphics/SVG/1.1/DTD/svg11.dtd">
<svg version="1.1" xmlns="http://www.w3.org/2000/svg" xmlns:xlink="http://www.w3.org/1999/xlink" x="0px" y="0px"
	 width="1224.001px" height="783.771px" viewBox="0 0 1224.001 783.771" style="enable-background:new 0 0 1224.001 783.771;"
	 xml:space="preserve">
<style type="text/css">
<![CDATA[
	.st0{opacity:0.6;fill:#FFFFFF;}
	.st1{opacity:0.5;fill:#EBF5F6;}
	.st2{opacity:0;fill:#FFFFFF;}
	.st3{opacity:0.3;fill:#FFFFFF;}
	.st4{opacity:0.08;fill:#FFFFFF;}
	.st5{opacity:0.2;fill:#EBF5F6;}
	.st6{display:inline;fill:#EEF1F1;}
	.st7{opacity:0.05;fill:#FFFFFF;}
	.st8{opacity:0.15;fill:#FFFFFF;}
	.st9{opacity:0.02;fill:#FFFFFF;}
	.st10{opacity:0.7;fill:#EBF5F6;}
	.st11{opacity:0.35;fill:#FFFFFF;}
	.st12{opacity:0.5;fill:#FFFFFF;}
	.st13{opacity:0.4;fill:#EBF5F6;}
	.st14{opacity:0.4;fill:url(#SVGID_3_);}
	.st15{opacity:0.55;fill:#FFFFFF;}
	.st16{opacity:0.2;fill:#FFFFFF;}
	.st17{fill:url(#SVGID_1_);}
	.st18{fill:url(#SVGID_2_);}
	.st19{opacity:0.1;fill:#EBF5F6;}
	.st20{opacity:0.65;fill:#FFFFFF;}
	.st21{opacity:0.7;fill:#FFFFFF;}
	.st22{opacity:0.6;fill:#EBF5F6;}
	.st23{display:inline;fill:#D8E5E4;}
	.st24{opacity:0.4;fill:#FFFFFF;}
	.st25{opacity:0.3;fill:#EBF5F6;}
	.st26{display:inline;opacity:0.4;fill:#FFFFFF;}
	.st27{opacity:0.1;fill:#FFFFFF;}
	.st28{opacity:0.06;fill:#FFFFFF;}
	.st29{display:none;}
	.st30{opacity:0.05;fill:#EBF5F6;}
	.st31{opacity:0.16;fill:#FFFFFF;}
	.st32{opacity:0.15;fill:#EBF5F6;}
	.st33{opacity:0.03;fill:#FFFFFF;}
]]>
</style>
<g id="Layer_2" class="st29">
	<rect y="-0.167" class="st23" width="1224" height="784"/>
</g>
<g id="Layer_1">
	<polygon class="st25" points="510.065,223.833 459.068,167.759 408.063,111.832 357.07,167.834 306.065,223.833 408.063,223.833 	
		"/>
	<polygon class="st25" points="918.065,223.833 867.068,167.759 816.063,111.832 765.07,167.834 714.065,223.833 816.063,223.833 	
		"/>
	<polygon class="st5" points="408.065,335.833 357.068,279.759 306.063,223.832 255.07,279.834 204.065,335.833 306.063,335.833 	
		"/>
	<polygon class="st5" points="816.065,335.833 765.068,279.759 714.063,223.832 663.07,279.834 612.065,335.833 714.063,335.833 	
		"/>
	<polygon class="st22" points="510.065,447.833 459.068,391.759 408.063,335.832 357.07,391.834 306.065,447.833 408.063,447.833 	
		"/>
	<polygon class="st25" points="714.065,447.833 663.068,391.759 612.063,335.832 561.07,391.834 510.065,447.833 612.063,447.833 	
		"/>
	<polygon class="st25" points="1122.065,447.833 1071.068,391.759 1020.063,335.832 969.07,391.834 918.065,447.833 
		1020.063,447.833 	"/>
	<polygon class="st19" points="204.065,559.833 153.068,503.759 102.063,447.832 51.071,503.834 0.065,559.833 102.063,559.833 	"/>
	<polygon class="st1" points="612.065,559.833 561.068,503.759 510.063,447.832 459.07,503.834 408.065,559.833 510.063,559.833 	
		"/>
	<polygon class="st10" points="408.065,111.833 357.068,55.759 306.063,-0.168 255.07,55.834 204.065,111.833 306.063,111.833 	"/>
	<polygon class="st13" points="612.065,111.833 561.068,55.759 510.063,-0.168 459.07,55.834 408.065,111.833 510.063,111.833 	"/>
	<polygon class="st1" points="1224.065,111.833 1173.068,55.759 1122.063,-0.168 1071.07,55.834 1020.065,111.833 1122.063,111.833 
			"/>
	<polygon class="st5" points="0.063,447.833 -101.935,447.833 -50.93,391.834 0.063,335.832 51.068,391.759 102.065,447.833 	"/>
	<polygon class="st19" points="1020.065,559.833 969.068,503.759 918.063,447.832 867.07,503.834 816.065,559.833 918.063,559.833 	
		"/>
	<polygon class="st32" points="510.065,671.833 459.068,615.759 408.063,559.832 357.07,615.835 306.065,671.833 408.063,671.833 	
		"/>
	<polygon class="st5" points="714.065,671.833 663.068,615.759 612.063,559.832 561.07,615.835 510.065,671.833 612.063,671.833 	
		"/>
	<polygon class="st19" points="918.065,671.833 867.068,615.759 816.063,559.832 765.07,615.835 714.065,671.833 816.063,671.833 	
		"/>
	<polygon class="st30" points="1326.065,671.833 1275.068,615.759 1224.063,559.832 1173.07,615.835 1122.065,671.833 
		1224.063,671.833 	"/>
	<polygon class="st30" points="102.065,671.833 51.068,615.759 0.063,559.832 -50.93,615.835 -101.935,671.833 0.063,671.833 	"/>
	<polygon class="st5" points="204.065,783.833 153.068,727.759 102.063,671.832 51.071,727.835 0.065,783.833 102.063,783.833 	"/>
	<polygon class="st5" points="612.065,783.833 561.068,727.759 510.063,671.832 459.07,727.835 408.065,783.833 510.063,783.833 	
		"/>
	<polygon class="st5" points="816.065,783.833 765.068,727.759 714.063,671.832 663.07,727.835 612.065,783.833 714.063,783.833 	
		"/>
	<linearGradient id="SVGID_1_" gradientUnits="userSpaceOnUse" x1="612.0654" y1="783.833" x2="612.0654" y2="-0.1675">
		<stop  offset="0" style="stop-color:#FFFFFF;stop-opacity:0"/>
		<stop  offset="0.1638" style="stop-color:#F4FAFA;stop-opacity:0.1638"/>
		<stop  offset="0.4062" style="stop-color:#EDF6F7;stop-opacity:0.4062"/>
		<stop  offset="1" style="stop-color:#EBF5F6"/>
	</linearGradient>
	<path class="st17" d="M714.065,223.833l-50.997-56.074l-51.005-55.927l-50.993,56.003l-51.005,55.998h101.998H714.065z
		 M612.065,335.833l-50.997-56.074l-51.005-55.927l-50.993,56.003l-51.005,55.998h101.998H612.065z M714.063,111.833H612.065
		l51.005-55.998l50.993-56.003l51.005,55.927l50.997,56.074H714.063z M306.065,223.833l-50.997-56.074l-51.005-55.927
		l-50.993,56.003l-51.005,55.998h101.998H306.065z M204.065,111.833l-50.997-56.074L102.063-0.168L51.071,55.835L0.065,111.833
		h101.998H204.065z M918.063,111.833H816.065l51.005-55.998l50.993-56.003l51.005,55.927l50.997,56.074H918.063z M1020.063,223.833
		H918.065l51.005-55.998l50.993-56.003l51.005,55.927l50.997,56.074H1020.063z M1224.063,223.833h-101.998l51.005-55.998
		l50.993-56.003l51.005,55.927l50.997,56.074H1224.063z M0.063,223.833h-101.998l51.005-55.998l50.993-56.003l51.005,55.927
		l50.997,56.074H0.063z M102.063,335.833H0.065l51.005-55.998l50.993-56.003l51.005,55.927l50.997,56.074H102.063z M918.063,335.833
		H816.065l51.005-55.998l50.993-56.003l51.005,55.927l50.997,56.074H918.063z M1122.063,335.833h-101.998l51.005-55.998
		l50.993-56.003l51.005,55.927l50.997,56.074H1122.063z M204.063,447.833H102.065l51.005-55.998l50.993-56.003l51.005,55.927
		l50.997,56.074H204.063z M816.063,447.833H714.065l51.005-55.998l50.993-56.003l51.005,55.927l50.997,56.074H816.063z
		 M1224.063,447.833h-101.998l51.005-55.998l50.993-56.003l51.005,55.927l50.997,56.074H1224.063z M306.063,559.833H204.065
		l51.005-55.998l50.993-56.003l51.005,55.927l50.997,56.074H306.063z M714.063,559.833H612.065l51.005-55.998l50.993-56.003
		l51.005,55.927l50.997,56.074H714.063z M1122.063,559.833h-101.998l51.005-55.998l50.993-56.003l51.005,55.927l50.997,56.074
		H1122.063z M204.063,671.833H102.065l51.005-55.998l50.993-56.003l51.005,55.927l50.997,56.074H204.063z M1020.063,671.833H918.065
		l51.005-55.998l50.993-56.003l51.005,55.927l50.997,56.074H1020.063z M306.063,783.833H204.065l51.005-55.998l50.993-56.003
		l51.005,55.927l50.997,56.074H306.063z M918.063,783.833H816.065l51.005-55.998l50.993-56.003l51.005,55.927l50.997,56.074H918.063
		z M1122.063,783.833h-101.998l51.005-55.998l50.993-56.003l51.005,55.927l50.997,56.074H1122.063z"/>
</g>
</svg>
